<?xml version="1.0" encoding="utf-8"?>
<!-- Generator: Adobe Illustrator 16.0.0, SVG Export Plug-In . SVG Version: 6.00 Build 0)  -->
<!DOCTYPE svg PUBLIC "-//W3C//DTD SVG 1.1//EN" "http://www.w3.org/Graphics/SVG/1.1/DTD/svg11.dtd">
<svg version="1.1" id="bold" xmlns="http://www.w3.org/2000/svg" xmlns:xlink="http://www.w3.org/1999/xlink" x="0px" y="0px"
	 width="512px" height="512px" viewBox="0 0 512 512" enable-background="new 0 0 512 512" xml:space="preserve">
<path fill="#607D8B" d="M192,117.333h42.666v352H192V117.333z"/>
<path fill="#607D8B" d="M149.333,309.334h-42.667c-11.775,0-21.333-9.537-21.333-21.334s9.558-21.334,21.333-21.334h42.667
	c11.776,0,21.333,9.537,21.333,21.334S161.11,309.334,149.333,309.334z"/>
<path fill="#607D8B" d="M154.666,213.333h-48c-11.775,0-21.333-9.536-21.333-21.333s9.558-21.333,21.333-21.333h48
	c11.776,0,21.334,9.536,21.334,21.333S166.443,213.333,154.666,213.333z"/>
<path fill="#607D8B" d="M149.333,405.334h-42.667c-11.775,0-21.333-9.537-21.333-21.334s9.558-21.334,21.333-21.334h42.667
	c11.776,0,21.333,9.537,21.333,21.334S161.11,405.334,149.333,405.334z"/>
<path fill="#607D8B" d="M448,21.333H64c-35.285,0-64,28.714-64,64v341.333c0,35.285,28.715,64,64,64h384c35.285,0,64-28.715,64-64
	V85.333C512,50.048,483.285,21.333,448,21.333z M448,448H64c-11.755,0-21.334-9.558-21.334-21.333V128h426.667v298.667
	C469.333,438.442,459.754,448,448,448z"/>
</svg>
