<?xml version="1.0" encoding="utf-8"?>
<!-- Generator: Adobe Illustrator 16.0.0, SVG Export Plug-In . SVG Version: 6.00 Build 0)  -->
<!DOCTYPE svg PUBLIC "-//W3C//DTD SVG 1.1//EN" "http://www.w3.org/Graphics/SVG/1.1/DTD/svg11.dtd">
<svg version="1.1" id="圖層_1" xmlns="http://www.w3.org/2000/svg" xmlns:xlink="http://www.w3.org/1999/xlink" x="0px" y="0px"
	 width="512px" height="512px" viewBox="0 0 512 512" enable-background="new 0 0 512 512" xml:space="preserve">
<path fill="#607D8B" d="M186.666,375.723v98.944c0,6.912,4.438,13.034,11.009,15.21c1.643,0.533,3.327,0.79,4.991,0.79
	c4.992,0,9.813-2.347,12.886-6.528l57.877-78.763L186.666,375.723z"/>
<path fill="#607D8B" d="M505.28,2.965c-4.906-3.478-11.35-3.947-16.683-1.152l-480,250.667c-5.674,2.965-9.023,9.024-8.555,15.403
	c0.491,6.4,4.736,11.861,10.773,13.931l133.44,45.61L428.437,84.438L208.533,349.376l223.637,76.438
	c1.664,0.555,3.414,0.854,5.163,0.854c2.901,0,5.781-0.79,8.319-2.325c4.054-2.475,6.806-6.635,7.51-11.307l58.667-394.667
	C512.703,12.395,510.187,6.464,505.28,2.965z"/>
</svg>
