<?xml version="1.0" encoding="utf-8"?>
<!-- Generator: Adobe Illustrator 16.0.0, SVG Export Plug-In . SVG Version: 6.00 Build 0)  -->
<!DOCTYPE svg PUBLIC "-//W3C//DTD SVG 1.1//EN" "http://www.w3.org/Graphics/SVG/1.1/DTD/svg11.dtd">
<svg version="1.1" id="Capa_1" xmlns="http://www.w3.org/2000/svg" xmlns:xlink="http://www.w3.org/1999/xlink" x="0px" y="0px"
	 width="595.453px" height="611.999px" viewBox="8.273 90 595.453 611.999" enable-background="new 8.273 90 595.453 611.999"
	 xml:space="preserve">
<g>
	<g>
		<path fill="#607D8B" d="M597.847,476.478l-64.565-50.644c1.225-9.792,2.143-19.736,2.143-29.835
			c0-10.098-0.918-20.042-2.143-29.835L598,315.521c5.813-4.59,7.496-12.852,3.672-19.583l-61.2-106.029
			c-3.825-6.579-11.78-9.333-18.666-6.579l-76.193,30.753c-15.76-12.087-33.048-22.337-51.714-30.141l-11.475-81.089
			C381.045,95.662,374.773,90,367.122,90H244.724c-7.648,0-13.923,5.662-15.146,12.852l-11.476,81.089
			c-18.666,7.803-35.956,17.901-51.714,30.141l-76.194-30.753c-6.885-2.601-14.841,0-18.665,6.579l-61.202,106.03
			c-3.825,6.579-2.143,14.841,3.672,19.583l64.564,50.643c-1.224,9.792-2.142,19.737-2.142,29.835
			c0,10.099,0.918,20.043,2.142,29.835l-64.564,50.644c-5.813,4.591-7.497,12.854-3.672,19.585L71.527,602.09
			c3.826,6.58,11.781,9.334,18.666,6.58l76.193-30.753c15.76,12.087,33.049,22.337,51.714,30.14l11.476,81.091
			c1.224,7.189,7.498,12.852,15.146,12.852H367.12c7.649,0,13.924-5.661,15.146-12.852l11.476-81.091
			c18.665-7.803,35.955-17.899,51.713-30.14l76.194,30.753c6.885,2.602,14.841,0,18.665-6.58l61.201-106.027
			C605.344,489.483,603.659,481.221,597.847,476.478z M305.923,503.1c-59.211,0-107.102-47.89-107.102-107.1
			c0-59.211,47.891-107.099,107.102-107.099s107.101,47.89,107.101,107.101S365.134,503.1,305.923,503.1z"/>
	</g>
</g>
</svg>
